InvestorMFId,ExtTransactionID,TransactionDate,Amount,NAV,Units,TDSAmnt,STTAmnt,TransactionType
1,20190617,2019-06-17,10000,56.242,177.8031,0,0,BUY
1,20190621,2019-06-21,20000,56.936,351.2716,0,0,BUY
1,20190626,2019-06-26,150000,57.587,2604.7545,0,0,BUY
1,20190628,2019-06-28,20000,57.453,348.1106,0,0,BUY
1,20190702,2019-07-02,25000,57.683,433.4033,0,0,BUY
1,20190711,2019-07-11,10000,56.065,178.3644,0,0,SELL
1,20190712,2019-07-12,15000,56.076,267.4941,0,0,BUY
1,20190722,2019-07-22,25000,55.298,452.0959,0,0,BUY
1,20190730,2019-07-30,15000,53.981,277.8755,0,0,BUY
1,20190205,2019-08-05,10000,53.289,187.656,0,0,SELL
2,20190606,2019-06-06,10000,18.289,546.7768,0,0,BUY
2,20190715,2019-07-15,20000,17.873,1119.0063,0,0,BUY
2,20190805,2019-08-05,20000,17.0073,1175.9656,0,0,BUY
2,20190816,2019-08-16,15000,17.4113,861.5095,0,0,BUY
2,20191010,2019-10-10,10000,18.4175,542.9619,0,0,SELL
2,20190923,2019-09-23,15000,19.278,778.089,0,0,SELL
2,20190924,2019-09-24,15000,19.1877,781.7508,0,0,BUY
